RIBBiTR Data Pulling – qmd_website
…
Explore # of samples by species, then filter

(spp_summary = db_capture_bd_life%>%
  select(species_capture) %>%
  group_by(species_capture) %>%
  summarise(sample_count = n()) %>%
  arrange(desc(sample_count)) %>%
  collect())

# A tibble: 131 × 2
   species_capture           sample_count
   <chr>                          <int64>
 1 rana_muscosa                     13328
 2 rana_clamitans                    2366
 3 rana_catesbeiana                  1601
 4 pseudacris_crucifer               1118
 5 lithobates_sphenocephalus          965
 6 rana_pipiens                       551
 7 notophthalmus_viridescens          535
 8 lithobates_chiricahuensis          453
 9 colostethus_panamensis             429
10 hyla_versicolor                    417
# ℹ 121 more rows
…
